Final Github Markdown
Loading packages

FTE DATA

Upload data and create a dataframe called khn

Create a new dataframe that filters just for NC

Select certain categories and filter out rows without fte data

Find the average FTE per capita for the years we have available for each health department

## `summarise()` ungrouping output (override with `.groups` argument)
## # A tibble: 94 x 2
##    lhd_name                             Avg_fte_per_100000
##    <chr>                                             <dbl>
##  1 Yancey County Health Department                    608.
##  2 Hyde County Health Department                      481.
##  3 Swain County Health Department                     373.
##  4 Graham County Health Department                    334.
##  5 Alexander County Health Department                 307.
##  6 Toe River District                                 306.
##  7 Northampton County Health Department               301.
##  8 Clay County Health Department                      291.
##  9 Martin Tyrrell Washington District                 268.
## 10 Dare County Health Department                      257.
## # ... with 84 more rows
…
Find the average percent change in fte from 2007-2017

## # A tibble: 49 x 5
##    lhd_name                             `2007` `2017` pct_change   avg
##    <chr>                                 <dbl>  <dbl>      <dbl> <dbl>
##  1 Mecklenburg County Health Department    379    825     118.   -12.5
##  2 Madison County Health Department         25     38      52    -12.5
##  3 Johnston County Health Department       107    146      36.4  -12.5
##  4 Jones County Health Department           15     19      26.7  -12.5
##  5 Pender County Health Department          56     65      16.1  -12.5
##  6 Cleveland County Health Department      202    229      13.4  -12.5
##  7 Orange County Health Department          94    102       8.51 -12.5
##  8 Pitt County Public Health Center        124    133       7.26 -12.5
##  9 Henderson County Health Department       90     95       5.56 -12.5
## 10 Stanly County Health Department          63     65       3.17 -12.5
## # ... with 39 more rows
…
## # A tibble: 2 x 2
##    year expenditures_infl_per_capita
##   <dbl>                        <dbl>
## 1  2010                        100. 
## 2  2018                         72.8
While expenditures per capita declined 16% in the United States, they fell 27% in North Carolina.

For every dollar spent on state agency public health nationally in 2010, NC spent 90 cents.

By 2018, that was only 77 cents per dollar.

Rearranging the national dataframe from least to greatest, to see where NC ranks in expenditures per capita in 2018.

## # A tibble: 47 x 2
##    state_code expenditures_infl_per_capita
##    <chr>                             <dbl>
##  1 IL                                 30.8
##  2 SC                                 44.5
##  3 OH                                 50.1
##  4 WI                                 54.1
##  5 ID                                 58.3
##  6 IN                                 60.6
##  7 OR                                 61.7
##  8 KS                                 63.1
##  9 NH                                 64.0
## 10 NV                                 65.5
## # ... with 37 more rows
…
Checking to see how much spending has dropped on average for NC counties.

## `summarise()` ungrouping output (override with `.groups` argument)
## # A tibble: 2 x 4
##    year cum_expenditures cum_population cum_expenditures_per_capita
##   <int>            <dbl>          <dbl>                       <dbl>
## 1  2010       519968843.        6078140                        85.5
## 2  2018       487368803.        7238081                        67.3
On top of the 27% drop at the state level, county-level spending also dropped 21%.

It’s been left to local agencies to pick up the slack. Some have. Some haven’t. But nobody really knows. The report for the first time ever tries to shine light on the local public health spending in North Carolina.

Showing where each individual LHD ranks by pct_change in per capita.

## # A tibble: 44 x 11
##    county_name year2010 year2011 year2012 year2013 year2014 year2015 year2016
##    <chr>          <dbl>    <dbl>    <dbl>    <dbl>    <dbl>    <dbl>    <dbl>
##  1 Wake           107.     101.       NaN       NA     42.2     43.9     45.4
##  2 Yadkin          86.1     80.4      NaN       NA     38.3     39.3     40.5
##  3 Moore           69.3     59.6      NaN       NA     41.9     41.8     41.6
##  4 Catawba         94.5     92.6      NaN       NA     73.9     71.7     63.1
##  5 Jones          153.     127.       NaN       NA    101.      95.4    105. 
##  6 Brunswick       87.6     80.5      NaN       NA     60.4     60.7     54.8
##  7 Hyde           333.     297.       NaN       NA    272.     285.     305. 
##  8 Harnett         68.5     61.2      NaN       NA     48.7     51.6     49.4
##  9 Avery, Mit~    131.     125.       NaN       NA    114.     112.      97.6
## 10 Gaston         129.     110.       NaN       NA     96.9     84.9     85.8
## # ... with 34 more rows, and 3 more variables: year2017 <dbl>, year2018 <dbl>,
## #   pct_change <dbl>
The county with the biggest decline was Wake. From 2011 to 2014, it’s per capita spending dropped nearly 60 percent.

On the other hand, Mecklenburg saw the biggest per capita increase – 40% over those 8 years, and a jump of 28% from 2015 to 2016 alone.

Did that happen everywhere in 2015-2016?

Looking at percent change numbers for all counties from 2015-2016. Mecklenburg had almost 14% more of an increase than the next highest, which was Richmond county at 14%.

## # A tibble: 51 x 4
##    county_name                  year2015 year2016 pct_change
##    <chr>                           <dbl>    <dbl>      <dbl>
##  1 Lincoln                          67.2     57.5    -0.144 
##  2 Avery, Mitchell & Yancey        112.      97.6    -0.128 
##  3 Catawba                          71.7     63.1    -0.120 
##  4 Alexander                        83.5     73.9    -0.115 
##  5 Brunswick                        60.7     54.8    -0.0974
##  6 Martin, Tyrrell & Washington    171.     161.     -0.0551
##  7 Harnett                          51.6     49.4    -0.0437
##  8 Burke                            37.0     35.7    -0.0335
##  9 Person                          115.     112.     -0.0308
## 10 Wayne                            64.3     62.5    -0.0281
## # ... with 41 more rows
Right next door to Wake, in more rural Johnston County in the same year, you had a 4% increase.

Mecklenburg dipped, too, but the rocketed back to see a 40% increase in per capita spending.

Ordering the counties by how they ranked for their per capita expenditures in 2010.

## # A tibble: 44 x 11
##    county_name year2010 year2011 year2012 year2013 year2014 year2015 year2016
##    <chr>          <dbl>    <dbl>    <dbl>    <dbl>    <dbl>    <dbl>    <dbl>
##  1 Stanly          44.0     45.1      NaN       NA     42.4     44.1     43.5
##  2 Burke           47.5     43.7      NaN       NA     36.3     37.0     35.7
##  3 Mecklenburg     49.1     48.1      NaN       NA     40.7     52.3     66.9
##  4 Rowan           49.5     49.9      NaN       NA     41.4     41.2     41.3
##  5 Union           49.5     48.2      NaN       NA     38.9     42.3     43.8
##  6 Johnston        53.8     51.7      NaN       NA     68.4     70.2     73.1
##  7 Lee             57.4     51.3      NaN       NA     50.1     51.7     55.7
##  8 Iredell         59.9     54.5      NaN       NA     49.4     47.6     47.9
##  9 Lenoir          63.5     64.6      NaN       NA     63.3     69.1     73.3
## 10 Granville ~     65.9     62.7      NaN       NA     65.6     64.0     62.4
## # ... with 34 more rows, and 3 more variables: year2017 <dbl>, year2018 <dbl>,
## #   pct_change <dbl>
In 2010, Mecklenburg had one of the lowest per capita rates in the state – similar to tiny Stanly and Burke counties. (Show an animated map change from 2010 to 2018 per capita.)

In 2010, Meck and Union were both near the bottom, spending similar amounts per person. But by 2018 as Meck continued to spend, Union’ expenditures dropped nearly 32%.

Sorting counties by their per capita expenditures in 2018.

## # A tibble: 44 x 11
##    county_name year2010 year2011 year2012 year2013 year2014 year2015 year2016
##    <chr>          <dbl>    <dbl>    <dbl>    <dbl>    <dbl>    <dbl>    <dbl>
##  1 Union           49.5     48.2      NaN       NA     38.9     42.3     43.8
##  2 Burke           47.5     43.7      NaN       NA     36.3     37.0     35.7
##  3 Moore           69.3     59.6      NaN       NA     41.9     41.8     41.6
##  4 Yadkin          86.1     80.4      NaN       NA     38.3     39.3     40.5
##  5 Rowan           49.5     49.9      NaN       NA     41.4     41.2     41.3
##  6 Stanly          44.0     45.1      NaN       NA     42.4     44.1     43.5
##  7 Harnett         68.5     61.2      NaN       NA     48.7     51.6     49.4
##  8 Wake           107.     101.       NaN       NA     42.2     43.9     45.4
##  9 Iredell         59.9     54.5      NaN       NA     49.4     47.6     47.9
## 10 Lee             57.4     51.3      NaN       NA     50.1     51.7     55.7
## # ... with 34 more rows, and 3 more variables: year2017 <dbl>, year2018 <dbl>,
## #   pct_change <dbl>
…
Filtering each county so only increases in FTEs are shown.

## # A tibble: 32 x 6
##    county_name              year2009 year2017 pop_diff pct_diff change  
##    <chr>                       <dbl>    <dbl>    <dbl>    <dbl> <chr>   
##  1 Alexander                   37053    37143       90  0.00243 increase
##  2 Avery, Mitchell & Yancey    51320    51426      106  0.00207 increase
##  3 Brunswick                  105226   131644    26418  0.251   increase
##  4 Burke                       90521    91402      881  0.00973 increase
##  5 Cabarrus                   175993   206988    30995  0.176   increase
##  6 Carteret                    65670    68921     3251  0.0495  increase
##  7 Catawba                    154610   157852     3242  0.0210  increase
##  8 Craven                     101923   102492      569  0.00558 increase
##  9 Dare                        33679    36199     2520  0.0748  increase
## 10 Forsyth                    347333   372845    25512  0.0735  increase
## # ... with 22 more rows
Filtering to find all the health departments that had their number of FTEs decrease.

## # A tibble: 62 x 6
##    lhd_name                   county_name    year2009 year2017 change pct_change
##    <chr>                      <chr>             <dbl>    <dbl>  <dbl>      <dbl>
##  1 Alamance County Health De~ Alamance Coun~      111       92    -19     -0.171
##  2 Albemarle Regional Health~ <NA>                445      210   -235     -0.528
##  3 Alexander County Health D~ Alexander Cou~       45       29    -16     -0.356
##  4 Anson County Health Depar~ Anson County         24       19     -5     -0.208
##  5 Appalachian District Heal~ <NA>                 92       79    -13     -0.141
##  6 Bladen County Health Depa~ Bladen County        65       56     -9     -0.138
##  7 Brunswick County Health D~ Brunswick Cou~       87       60    -27     -0.310
##  8 Buncombe County Health De~ Buncombe Coun~      233      110   -123     -0.528
##  9 Burke County Health Depar~ Burke County         81       45    -36     -0.444
## 10 Caldwell County Health De~ Caldwell Coun~      114       78    -36     -0.316
## # ... with 52 more rows
Brunswick County’s population exploded by more than a third over those 10 years. At the same time, it’s public health staff was cut by 41%.

23 other counties or districts that gained population but lost public health FTEs: * Avery, Mitchell, Yancey (Toe River) * Catawba * (Public Health Authority of) Cabarrus * Craven * Dare * Forsyth * Franklin * Granville & Vance * Guilford * Iredell * Jackson * Lee * Lincoln * Moore * Person * Rowan * Swain * Transylvania * Union * Wayne

Ranking all the LHD’s by their number of FTEs in 2017.

## # A tibble: 85 x 2
##    lhd_name                                fte
##    <chr>                                 <dbl>
##  1 Hyde County Health Department            14
##  2 Pamlico County Health Department         15
##  3 Yadkin County Health Department          18
##  4 Anson County Health Department           19
##  5 Jones County Health Department           19
##  6 Graham County Health Department          21
##  7 Greene County Health Department          26
##  8 Hoke County Health Center                26
##  9 Transylvania County Health Department    28
## 10 Alexander County Health Department       29
## # ... with 75 more rows
Ranking the counties by their per capita expenditures.

## # A tibble: 126 x 3
##    county_name  year expenditures_infl_per_capita
##    <chr>       <int>                        <dbl>
##  1 Union        2018                         33.6
##  2 Burke        2018                         34.5
##  3 Moore        2018                         36.4
##  4 Onslow       2018                         37.3
##  5 Yadkin       2018                         39.8
##  6 Rowan        2018                         40.9
##  7 Stanly       2018                         41.8
##  8 Harnett      2018                         43.6
##  9 Wake         2018                         44.5
## 10 Iredell      2018                         47.2
## # ... with 116 more rows
…
## # A tibble: 9 x 4
##    year  total_raw  total_infl multiplier2019
##   <dbl>      <dbl>       <dbl>          <dbl>
## 1  2010 3514717482 4277404753.           1.22
## 2  2011 3472819064 4093661998.           1.18
## 3  2012       -Inf       -Inf          NaN   
## 4  2014 4938873972 5386128525.           1.09
## 5  2015 4128673660 4501194675.           1.09
## 6  2016 5253848049 5718313351.           1.09
## 7  2017 2772623026 2937887484.           1.06
## 8  2018 6985573518 7136717414.           1.02
## 9  2019       -Inf       -Inf          NaN
There was no state expenditure data collected in 2012, at least in this dataset.

## # A tibble: 51 x 3
##     year expenditures expenditures_infl
##    <dbl>        <dbl>             <dbl>
##  1  2012           NA                NA
##  2  2012           NA                NA
##  3  2012           NA                NA
##  4  2012           NA                NA
##  5  2012           NA                NA
##  6  2012           NA                NA
##  7  2012           NA                NA
##  8  2012           NA                NA
##  9  2012           NA                NA
## 10  2012           NA                NA
## # ... with 41 more rows
Adding the inflation rates to the inflation-adjusted CompiledLHDExpenditures dataframe.

## # A tibble: 829 x 8
##     year lhd_name lhd_area_type county_name population expenditures
##    <dbl> <chr>    <chr>         <chr>            <dbl>        <dbl>
##  1  2003 Alexand~ Single        Alexander        34998     1781515.
##  2  2004 Alexand~ Single        Alexander        34959     1995525.
##  3  2005 Alexand~ Single        Alexander        35786     2091491.
##  4  2006 Alexand~ Single        Alexander        36042     2247852.
##  5  2007 Alexand~ Single        Alexander        36609     2513023.
##  6  2008 Alexand~ Single        Alexander        36743     2638066.
##  7  2009 Alexand~ Single        Alexander        37053     2687629.
##  8  2010 Alexand~ Single        Alexander        37198     2763318.
##  9  2011 Alexand~ Single        Alexander        37026     2784168.
## 10  2012 Alexand~ Single        Alexander        37323     2911935.
## # ... with 819 more rows, and 2 more variables: expenditures_infl <dbl>,
## #   expenditures_per_capita <dbl>
…
